\relax 
\bibstyle{plain}
\@writefile{toc}{\contentsline {chapter}{\numberline {1}Introduction}{3}}
\@writefile{lof}{\addvspace {10\p@ }}
\@writefile{lot}{\addvspace {10\p@ }}
\newlabel{Chap:Introduction}{{1}{3}}
\@writefile{toc}{\contentsline {chapter}{\numberline {2}Overview}{5}}
\@writefile{lof}{\addvspace {10\p@ }}
\@writefile{lot}{\addvspace {10\p@ }}
\newlabel{Chap:Overview}{{2}{5}}
\@writefile{lof}{\contentsline {figure}{\numberline {2.1}{\ignorespaces Sample GTNetS Topology}}{5}}
\newlabel{Fig:Intro1}{{2.1}{5}}
\newlabel{Prog:intro1.cc}{{2-1}{5}}
\newlabel{Prog:intro1:Line:IncludeStart}{{4}{6}}
\newlabel{Prog:intro1:Line:IncludeEnd}{{10}{6}}
\newlabel{Prog:intro1:Line:Main}{{12}{6}}
\newlabel{Prog:intro1:Line:Simulator}{{15}{6}}
\newlabel{Prog:intro1:Line:TraceStart}{{17}{6}}
\newlabel{Prog:intro1:Line:TraceInstance}{{18}{6}}
\newlabel{Prog:intro1:Line:TraceDotted}{{19}{6}}
\newlabel{Prog:intro1:Line:TraceOpen}{{20}{6}}
\newlabel{Prog:intro1:Line:TraceFlags}{{21}{6}}
\newlabel{Prog:intro1:Line:TraceIP}{{22}{6}}
\newlabel{Prog:intro1:Line:TraceEnd}{{22}{6}}
\newlabel{Prog:intro1:Line:NodeStart}{{24}{6}}
\newlabel{Prog:intro1:Line:NodeEnd}{{30}{6}}
\newlabel{Prog:intro1:Line:LinkStart}{{32}{6}}
\newlabel{Prog:intro1:Line:Link}{{33}{6}}
\newlabel{Prog:intro1:Line:LinkAddStart}{{35}{6}}
\newlabel{Prog:intro1:Line:LinkAddEnd}{{38}{6}}
\newlabel{Prog:intro1:Line:LinkTwoStart}{{40}{6}}
\newlabel{Prog:intro1:Line:LinkTwoEnd}{{43}{6}}
\newlabel{Prog:intro1:Line:LinkEnd}{{43}{6}}
\newlabel{Prog:intro1:Line:TCPServerStart}{{45}{6}}
\newlabel{Prog:intro1:Line:TCPServerOne}{{46}{6}}
\newlabel{Prog:intro1:Line:TCPServerBindOne}{{49}{6}}
\newlabel{Prog:intro1:Line:TCPServerTraceOne}{{50}{6}}
\newlabel{Prog:intro1:Line:TCPServerTwo}{{53}{6}}
\newlabel{Prog:intro1:Line:TCPServerBindTwo}{{56}{6}}
\newlabel{Prog:intro1:Line:TCPServerTraceTwo}{{57}{7}}
\newlabel{Prog:intro1:Line:TCPServerEnd}{{58}{7}}
\newlabel{Prog:intro1:Line:TCPClientStartUniform}{{60}{7}}
\newlabel{Prog:intro1:Line:TCPClientStart}{{63}{7}}
\newlabel{Prog:intro1:Line:TCPClientOne}{{64}{7}}
\newlabel{Prog:intro1:Line:TCPClientOneUniform}{{65}{7}}
\newlabel{Prog:intro1:Line:TCPClientOneTrace}{{70}{7}}
\newlabel{Prog:intro1:Line:TCPClientStartOne}{{72}{7}}
\newlabel{Prog:intro1:Line:TCPClientTwo}{{76}{7}}
\newlabel{Prog:intro1:Line:TCPClientTwoConstant}{{77}{7}}
\newlabel{Prog:intro1:Line:TCPClientTwoTrace}{{82}{7}}
\newlabel{Prog:intro1:Line:TCPClientStartTwo}{{84}{7}}
\newlabel{Prog:intro1:Line:TCPClientEnd}{{86}{7}}
\newlabel{Prog:intro1:Line:Progress}{{88}{7}}
\newlabel{Prog:intro1:Line:StopAt}{{89}{7}}
\newlabel{Prog:intro1:Line:Run}{{90}{7}}
\@writefile{toc}{\contentsline {paragraph}{Include Files.}{7}}
\@writefile{toc}{\contentsline {paragraph}{Main Program.}{7}}
\@writefile{toc}{\contentsline {paragraph}{Simulator Object.}{7}}
\@writefile{toc}{\contentsline {paragraph}{Defining the Trace File.}{7}}
\@writefile{toc}{\contentsline {paragraph}{Create Simulated Nodes.}{8}}
\@writefile{toc}{\contentsline {paragraph}{Create Simulated Links.}{8}}
\@writefile{toc}{\contentsline {paragraph}{Create the TCP Servers.}{8}}
\@writefile{toc}{\contentsline {paragraph}{Create the TCP Clients.}{9}}
\@writefile{toc}{\contentsline {paragraph}{Start the Client Applications.}{9}}
\@writefile{toc}{\contentsline {paragraph}{Start the Simulation.}{9}}
\@writefile{toc}{\contentsline {chapter}{\numberline {3}The Simulator Object}{10}}
\@writefile{lof}{\addvspace {10\p@ }}
\@writefile{lot}{\addvspace {10\p@ }}
\newlabel{Chap:Simulator}{{3}{10}}
\@writefile{toc}{\contentsline {chapter}{\numberline {4}Defining Topologies}{18}}
\@writefile{lof}{\addvspace {10\p@ }}
\@writefile{lot}{\addvspace {10\p@ }}
\newlabel{Chap:Topology}{{4}{18}}
\@writefile{toc}{\contentsline {section}{\numberline {4.1}Nodes}{18}}
\newlabel{Sec:Nodes}{{4.1}{18}}
\@writefile{toc}{\contentsline {section}{\numberline {4.2}Interfaces}{39}}
\newlabel{Sec:Interfaces}{{4.2}{39}}
\@writefile{toc}{\contentsline {section}{\numberline {4.3}Queues}{41}}
\newlabel{Seq:Queues}{{4.3}{41}}
\@writefile{toc}{\contentsline {section}{\numberline {4.4}Links}{49}}
\newlabel{Sec:Links}{{4.4}{49}}
\@writefile{toc}{\contentsline {section}{\numberline {4.5}Stock Objects}{68}}
\newlabel{Sec:StockObjects}{{4.5}{68}}
\@writefile{toc}{\contentsline {subsection}{\numberline {4.5.1}GTitm Modeller}{68}}
\@writefile{toc}{\contentsline {subsection}{\numberline {4.5.2}TransitNode}{69}}
\@writefile{toc}{\contentsline {subsection}{\numberline {4.5.3}SubDomain}{71}}
\@writefile{toc}{\contentsline {subsection}{\numberline {4.5.4}Star Topology}{71}}
\@writefile{toc}{\contentsline {subsection}{\numberline {4.5.5}Grid Topology}{74}}
\newlabel{Prog:testgrid.cc}{{4-1}{74}}
\@writefile{toc}{\contentsline {subsection}{\numberline {4.5.6}Dumbbell Topology}{76}}
\newlabel{Prog:testbell.cc}{{4-2}{79}}
\@writefile{toc}{\contentsline {subsection}{\numberline {4.5.7}Tree Topology}{81}}
\@writefile{toc}{\contentsline {subsection}{\numberline {4.5.8}Random Topology}{83}}
\@writefile{toc}{\contentsline {chapter}{\numberline {5}Defining Applications}{84}}
\@writefile{lof}{\addvspace {10\p@ }}
\@writefile{lot}{\addvspace {10\p@ }}
\newlabel{Chap:Applications}{{5}{84}}
\@writefile{toc}{\contentsline {section}{\numberline {5.1}Application Base Class}{84}}
\@writefile{toc}{\contentsline {section}{\numberline {5.2}CBRApplication}{87}}
\@writefile{toc}{\contentsline {section}{\numberline {5.3}OnOffApplication}{88}}
\@writefile{toc}{\contentsline {section}{\numberline {5.4}TCPApplication}{89}}
\@writefile{toc}{\contentsline {section}{\numberline {5.5}TCPReceive}{90}}
\@writefile{toc}{\contentsline {section}{\numberline {5.6}TCPServer}{91}}
\@writefile{toc}{\contentsline {section}{\numberline {5.7}WebServer}{92}}
\@writefile{toc}{\contentsline {section}{\numberline {5.8}WebBrowser}{93}}
\@writefile{toc}{\contentsline {chapter}{\numberline {6}Layer 4 Protocols}{96}}
\@writefile{lof}{\addvspace {10\p@ }}
\@writefile{lot}{\addvspace {10\p@ }}
\newlabel{Chap:L4Protocols}{{6}{96}}
\@writefile{toc}{\contentsline {section}{\numberline {6.1}L4Protocol Base Class}{96}}
\@writefile{toc}{\contentsline {section}{\numberline {6.2}TCP Protocol Base Class and Variations}{101}}
\@writefile{toc}{\contentsline {section}{\numberline {6.3}Round--Trip Time Estimators}{108}}
\@writefile{toc}{\contentsline {section}{\numberline {6.4}UDP Protocol}{111}}
\@writefile{toc}{\contentsline {chapter}{\numberline {7}Layer 3 Protocols}{112}}
\@writefile{lof}{\addvspace {10\p@ }}
\@writefile{lot}{\addvspace {10\p@ }}
\newlabel{Chap:L3Protocols}{{7}{112}}
\@writefile{toc}{\contentsline {chapter}{\numberline {8}Layer 2 Protocols}{114}}
\@writefile{lof}{\addvspace {10\p@ }}
\@writefile{lot}{\addvspace {10\p@ }}
\newlabel{Chap:L2Protocols}{{8}{114}}
\@writefile{toc}{\contentsline {section}{\numberline {8.1}IEEE 802.2}{114}}
\@writefile{toc}{\contentsline {section}{\numberline {8.2}IEEE 802.11}{115}}
\@writefile{toc}{\contentsline {chapter}{\numberline {9}Routing}{116}}
\@writefile{lof}{\addvspace {10\p@ }}
\@writefile{lot}{\addvspace {10\p@ }}
\newlabel{Chap:Routing}{{9}{116}}
\@writefile{toc}{\contentsline {section}{\numberline {9.1}Routing Base Class}{116}}
\@writefile{toc}{\contentsline {section}{\numberline {9.2}Nix--Vector Routing}{118}}
\@writefile{toc}{\contentsline {section}{\numberline {9.3}Static Routing}{120}}
\@writefile{toc}{\contentsline {section}{\numberline {9.4}Manual Routing}{122}}
\@writefile{toc}{\contentsline {section}{\numberline {9.5}Wireless Dynamic Source Routing}{123}}
\@writefile{toc}{\contentsline {chapter}{\numberline {10}Tracing Packets}{124}}
\@writefile{lof}{\addvspace {10\p@ }}
\@writefile{lot}{\addvspace {10\p@ }}
\newlabel{Chap:Tracing}{{10}{124}}
\@writefile{toc}{\contentsline {section}{\numberline {10.1}Trace File Object}{125}}
\@writefile{lof}{\contentsline {figure}{\numberline {10.1}{\ignorespaces {\em  GTNets}\ Log File Excerpt}}{126}}
\newlabel{Fig:LogFile}{{10.1}{126}}
\@writefile{toc}{\contentsline {chapter}{\numberline {11}Miscellaneous Support Objects}{128}}
\@writefile{lof}{\addvspace {10\p@ }}
\@writefile{lot}{\addvspace {10\p@ }}
\newlabel{Chap:Miscellaneous}{{11}{128}}
\@writefile{toc}{\contentsline {section}{\numberline {11.1}Random Number Generators}{128}}
\@writefile{toc}{\contentsline {subsection}{\numberline {11.1.1}Random Number Base Class}{128}}
\@writefile{toc}{\contentsline {subsection}{\numberline {11.1.2}Uniform Random}{129}}
\@writefile{toc}{\contentsline {subsection}{\numberline {11.1.3}Constant Random}{130}}
\@writefile{toc}{\contentsline {subsection}{\numberline {11.1.4}Sequential Random}{130}}
\@writefile{toc}{\contentsline {subsection}{\numberline {11.1.5}Exponential Random}{131}}
\@writefile{toc}{\contentsline {subsection}{\numberline {11.1.6}Pareto Random}{131}}
\@writefile{toc}{\contentsline {subsection}{\numberline {11.1.7}Empirical Random}{132}}
\@writefile{toc}{\contentsline {subsection}{\numberline {11.1.8}Integer Empirical Random}{132}}
\@writefile{toc}{\contentsline {section}{\numberline {11.2}Statistics Gathering}{133}}
\@writefile{toc}{\contentsline {subsection}{\numberline {11.2.1}Statistics Base Class}{133}}
\@writefile{toc}{\contentsline {subsection}{\numberline {11.2.2}Histogram Class}{133}}
\@writefile{toc}{\contentsline {subsection}{\numberline {11.2.3}Average--Min--Max Class}{134}}
\@writefile{toc}{\contentsline {section}{\numberline {11.3}Packets and PDUs}{135}}
\@writefile{toc}{\contentsline {subsection}{\numberline {11.3.1}Packets}{135}}
\@writefile{toc}{\contentsline {subsection}{\numberline {11.3.2}Protocol Data Units}{138}}
\@writefile{toc}{\contentsline {section}{\numberline {11.4}Command Line Argument Processing}{140}}
\newlabel{Prog:argsdemo.cc}{{11-1}{140}}
\@writefile{toc}{\contentsline {section}{\numberline {11.5}{\em  IP Address}\ Management Object}{143}}
\@writefile{toc}{\contentsline {section}{\numberline {11.6}Time and Rate Parsing Objects}{143}}
\@writefile{toc}{\contentsline {subsection}{\numberline {11.6.1}Time Parsing Object}{144}}
\@writefile{toc}{\contentsline {subsection}{\numberline {11.6.2}Rate Parsing Object}{144}}
\newlabel{APP:IncludeCrossRef}{{11.6.2}{144}}
