%!PS-Adobe-2.0 EPSF-2.0
%%Title: intro1.fig
%%Creator: fig2dev Version 3.2 Patchlevel 3d
%%CreationDate: Fri Aug 22 12:11:35 2003
%%For: riley@enzo.ferrari.gatech.edu (George Riley)
%%BoundingBox: 0 0 305 166
%%Magnification: 1.0000
%%EndComments
/$F2psDict 200 dict def
$F2psDict begin
$F2psDict /mtrx matrix put
/col-1 {0 setgray} bind def
/col0 {0.000 0.000 0.000 srgb} bind def
/col1 {0.000 0.000 1.000 srgb} bind def
/col2 {0.000 1.000 0.000 srgb} bind def
/col3 {0.000 1.000 1.000 srgb} bind def
/col4 {1.000 0.000 0.000 srgb} bind def
/col5 {1.000 0.000 1.000 srgb} bind def
/col6 {1.000 1.000 0.000 srgb} bind def
/col7 {1.000 1.000 1.000 srgb} bind def
/col8 {0.000 0.000 0.560 srgb} bind def
/col9 {0.000 0.000 0.690 srgb} bind def
/col10 {0.000 0.000 0.820 srgb} bind def
/col11 {0.530 0.810 1.000 srgb} bind def
/col12 {0.000 0.560 0.000 srgb} bind def
/col13 {0.000 0.690 0.000 srgb} bind def
/col14 {0.000 0.820 0.000 srgb} bind def
/col15 {0.000 0.560 0.560 srgb} bind def
/col16 {0.000 0.690 0.690 srgb} bind def
/col17 {0.000 0.820 0.820 srgb} bind def
/col18 {0.560 0.000 0.000 srgb} bind def
/col19 {0.690 0.000 0.000 srgb} bind def
/col20 {0.820 0.000 0.000 srgb} bind def
/col21 {0.560 0.000 0.560 srgb} bind def
/col22 {0.690 0.000 0.690 srgb} bind def
/col23 {0.820 0.000 0.820 srgb} bind def
/col24 {0.500 0.190 0.000 srgb} bind def
/col25 {0.630 0.250 0.000 srgb} bind def
/col26 {0.750 0.380 0.000 srgb} bind def
/col27 {1.000 0.500 0.500 srgb} bind def
/col28 {1.000 0.630 0.630 srgb} bind def
/col29 {1.000 0.750 0.750 srgb} bind def
/col30 {1.000 0.880 0.880 srgb} bind def
/col31 {1.000 0.840 0.000 srgb} bind def

end
save
newpath 0 166 moveto 0 0 lineto 305 0 lineto 305 166 lineto closepath clip newpath
-31.5 171.0 translate
1 -1 scale

/cp {closepath} bind def
/ef {eofill} bind def
/gr {grestore} bind def
/gs {gsave} bind def
/sa {save} bind def
/rs {restore} bind def
/l {lineto} bind def
/m {moveto} bind def
/rm {rmoveto} bind def
/n {newpath} bind def
/s {stroke} bind def
/sh {show} bind def
/slc {setlinecap} bind def
/slj {setlinejoin} bind def
/slw {setlinewidth} bind def
/srgb {setrgbcolor} bind def
/rot {rotate} bind def
/sc {scale} bind def
/sd {setdash} bind def
/ff {findfont} bind def
/sf {setfont} bind def
/scf {scalefont} bind def
/sw {stringwidth} bind def
/tr {translate} bind def
/tnt {dup dup currentrgbcolor
  4 -2 roll dup 1 exch sub 3 -1 roll mul add
  4 -2 roll dup 1 exch sub 3 -1 roll mul add
  4 -2 roll dup 1 exch sub 3 -1 roll mul add srgb}
  bind def
/shd {dup dup currentrgbcolor 4 -2 roll mul 4 -2 roll mul
  4 -2 roll mul srgb} bind def
 /DrawEllipse {
	/endangle exch def
	/startangle exch def
	/yrad exch def
	/xrad exch def
	/y exch def
	/x exch def
	/savematrix mtrx currentmatrix def
	x y tr xrad yrad sc 0 0 1 startangle endangle arc
	closepath
	savematrix setmatrix
	} def

/$F2psBegin {$F2psDict begin /$F2psEnteredState save def} def
/$F2psEnd {$F2psEnteredState restore end} def

$F2psBegin
10 setmiterlimit
 0.06000 0.06000 sc
%
% Fig objects follow
%
7.500 slw
% Ellipse
n 900 562 302 302 0 360 DrawEllipse gs col0 s gr

% Ellipse
n 900 2362 302 302 0 360 DrawEllipse gs col0 s gr

% Ellipse
n 2100 1462 302 302 0 360 DrawEllipse gs col0 s gr

% Ellipse
n 3900 1462 302 302 0 360 DrawEllipse gs col0 s gr

% Ellipse
n 5100 562 302 302 0 360 DrawEllipse gs col0 s gr

% Ellipse
n 5100 2362 302 302 0 360 DrawEllipse gs col0 s gr

% Polyline
n 1200 750 m
 1875 1275 l gs col0 s gr 
% Polyline
n 1200 2250 m
 1875 1650 l gs col0 s gr 
% Polyline
n 2400 1500 m
 3600 1500 l gs col0 s gr 
% Polyline
n 4125 1275 m
 4875 750 l gs col0 s gr 
% Polyline
n 4125 1650 m
 4875 2175 l gs col0 s gr 
% Polyline
gs  clippath
1543 964 m 1585 1006 l 1693 899 l 1587 963 l 1650 856 l cp
eoclip
n 1875 675 m
 1575 975 l gs col0 s gr gr

% arrowhead
n 1650 856 m 1587 963 l 1693 899 l  col0 s
% Polyline
gs  clippath
2970 1440 m 3030 1440 l 3030 1288 l 3000 1408 l 2970 1288 l cp
eoclip
n 3000 1200 m
 3000 1425 l gs col0 s gr gr

% arrowhead
n 2970 1288 m 3000 1408 l 3030 1288 l  col0 s
% Polyline
gs  clippath
4414 1006 m 4456 964 l 4349 856 l 4413 963 l 4306 899 l cp
eoclip
n 4125 675 m
 4425 975 l gs col0 s gr gr

% arrowhead
n 4306 899 m 4413 963 l 4349 856 l  col0 s
% Polyline
gs  clippath
4381 1885 m 4339 1843 l 4231 1950 l 4338 1887 l 4274 1993 l cp
eoclip
n 4050 2175 m
 4350 1875 l gs col0 s gr gr

% arrowhead
n 4274 1993 m 4338 1887 l 4231 1950 l  col0 s
% Polyline
gs  clippath
1660 1918 m 1618 1960 l 1725 2068 l 1662 1962 l 1768 2025 l cp
eoclip
n 1875 2175 m
 1650 1950 l gs col0 s gr gr

% arrowhead
n 1768 2025 m 1662 1962 l 1725 2068 l  col0 s
/Times-Roman ff 180.00 scf sf
1500 600 m
gs 1 -1 sc (100Mbps, 5ms) col0 sh gr
/Times-Roman ff 180.00 scf sf
3525 600 m
gs 1 -1 sc (100Mbps, 5ms) col0 sh gr
/Times-Roman ff 180.00 scf sf
3525 2400 m
gs 1 -1 sc (100Mbps, 5ms) col0 sh gr
/Times-Roman ff 180.00 scf sf
1500 2400 m
gs 1 -1 sc (100Mbps, 5ms) col0 sh gr
/Times-Roman ff 180.00 scf sf
2400 1125 m
gs 1 -1 sc (10Mbps, 100ms) col0 sh gr
/Times-Roman ff 180.00 scf sf
825 600 m
gs 1 -1 sc (C1) col0 sh gr
/Times-Roman ff 180.00 scf sf
825 2400 m
gs 1 -1 sc (C2) col0 sh gr
/Times-Roman ff 180.00 scf sf
2025 1500 m
gs 1 -1 sc (R1) col0 sh gr
/Times-Roman ff 180.00 scf sf
3825 1500 m
gs 1 -1 sc (R2) col0 sh gr
/Times-Roman ff 180.00 scf sf
5025 600 m
gs 1 -1 sc (S1) col0 sh gr
/Times-Roman ff 180.00 scf sf
5025 2400 m
gs 1 -1 sc (S2) col0 sh gr
/Times-Roman ff 180.00 scf sf
525 225 m
gs 1 -1 sc (TCP Client 1) col0 sh gr
/Times-Roman ff 180.00 scf sf
525 1950 m
gs 1 -1 sc (TCP Client 2 ) col0 sh gr
/Times-Roman ff 180.00 scf sf
4575 225 m
gs 1 -1 sc (TCP Server 1) col0 sh gr
/Times-Roman ff 180.00 scf sf
4575 2850 m
gs 1 -1 sc (TCP Server 2) col0 sh gr
$F2psEnd
rs
